[ {
  "values" : [ "Firefox" ],
  "name" : "Browser"
}, {
  "values" : [ "87.0" ],
  "name" : "Browser.Version"
}, {
  "values" : [ "Testing" ],
  "name" : "Platform"
}, {
  "values" : [ "https://admin.countrydelight.in/admin/dashboard" ],
  "name" : "TestUrl"
}, {
  "values" : [ "http://localhost:8080/job/NewCMSAdmin/32/allure/" ],
  "name" : "BuildUrl"
} ]