launch_status failed=0 1617347444000000000
launch_status broken=1 1617347444000000000
launch_status passed=0 1617347444000000000
launch_status skipped=0 1617347444000000000
launch_status unknown=6 1617347444000000000
launch_time duration=50195 1617347444000000000
launch_time min_duration=0 1617347444000000000
launch_time max_duration=29619 1617347444000000000
launch_time sum_duration=29622 1617347444000000000
launch_problems test_defects=1 1617347444000000000
launch_retries retries=42 1617347444000000000
launch_retries run=7 1617347444000000000
