{
  "uid" : "4b4757e66a1912dae1a509f688f20b0f",
  "children" : [ {
    "name" : "Test defects",
    "children" : [ {
      "name" : "Unable to locate element: //input[@placeholder='Select route']\nFor documentation on this error, please visit: https://www.seleniumhq.org/exceptions/no_such_element.html\nBuild info: version: '3.141.59', revision: 'e82be7d358', time: '2018-11-14T08:17:03'\nSystem info: host: 'dell-Latitude-5490', ip: '127.0.1.1', os.name: 'Linux', os.arch: 'amd64', os.version: '4.15.0-140-generic', java.version: '1.8.0_282'\nDriver info: org.openqa.selenium.firefox.FirefoxDriver\nCapabilities {acceptInsecureCerts: true, browserName: firefox, browserVersion: 87.0, javascriptEnabled: true, moz:accessibilityChecks: false, moz:buildID: 20210318103112, moz:geckodriverVersion: 0.26.0, moz:headless: false, moz:processID: 12240, moz:profile: /tmp/rust_mozprofile1KODv8, moz:shutdownTimeout: 60000, moz:useNonSpecCompliantPointerOrigin: false, moz:webdriverClick: true, pageLoadStrategy: normal, platform: LINUX, platformName: LINUX, platformVersion: 4.15.0-140-generic, rotatable: false, setWindowRect: true, strictFileInteractability: false, timeouts: {implicit: 0, pageLoad: 300000, script: 30000}, unhandledPromptBehavior: dismiss and notify}\nSession ID: 56a48af2-d8fb-46fd-b304-4f25acacb9c8\n*** Element info: {Using=xpath, value=//input[@placeholder='Select route']}",
      "children" : [ {
        "name" : "Verify that selecting any route randomly",
        "uid" : "2dbd6151c2ae660c",
        "parentUid" : "5691f91cd8d4b66d9b517b72202abadf",
        "status" : "broken",
        "time" : {
          "start" : 1617347409617,
          "stop" : 1617347439236,
          "duration" : 29619
        },
        "flaky" : false,
        "newFailed" : false,
        "parameters" : [ ]
      } ],
      "uid" : "5691f91cd8d4b66d9b517b72202abadf"
    } ],
    "uid" : "bdbf199525818fae7a8651db9eafe741"
  } ],
  "name" : "categories"
}