"Status","Start Time","Stop Time","Duration in ms","Parent Suite","Suite","Sub Suite","Test Class","Test Method","Name","Description"
"unknown","Fri Apr 02 12:39:49 IST 2021","Fri Apr 02 12:39:49 IST 2021","0","Country Delight Test Automation suite for Admin Pages","Country Delight Admin pages Test Cases","com.new_cms_admin.qa.testcases.CustomerProfilePageTest","com.new_cms_admin.qa.testcases.CustomerProfilePageTest","validateSearchWithCustomerId","Verify that Search with valid customer Id for customer","Test Case Description: to validate Search with valid customer Id for customer"
"unknown","Fri Apr 02 12:39:49 IST 2021","Fri Apr 02 12:39:49 IST 2021","2","Country Delight Test Automation suite for Admin Pages","Country Delight Admin pages Test Cases","com.new_cms_admin.qa.testcases.CustomerProfilePageTest","com.new_cms_admin.qa.testcases.CustomerProfilePageTest","validateSearchWithinvalidCustomerId","Verify that Search with invalid customer Id for customer","Test Case Description: to validate Search with invalid customer Id for customer"
"unknown","Fri Apr 02 12:39:49 IST 2021","Fri Apr 02 12:39:49 IST 2021","0","Country Delight Test Automation suite for Admin Pages","Country Delight Admin pages Test Cases","com.new_cms_admin.qa.testcases.CustomerProfilePageTest","com.new_cms_admin.qa.testcases.CustomerProfilePageTest","validateSearchWithPhoneNumber","Verify that Search with valid Phone Number for customer","Test Case Description: to validate Search with valid Phone Number for customer"
"unknown","Fri Apr 02 12:39:49 IST 2021","Fri Apr 02 12:39:49 IST 2021","1","Country Delight Test Automation suite for Admin Pages","Country Delight Admin pages Test Cases","com.new_cms_admin.qa.testcases.CustomerProfilePageTest","com.new_cms_admin.qa.testcases.CustomerProfilePageTest","validateselectinganyRoute","Verify that selecting any route randomly","Test Case Description: to validate selecting any route randomly"
"unknown","Fri Apr 02 12:39:49 IST 2021","Fri Apr 02 12:39:49 IST 2021","0","Country Delight Test Automation suite for Admin Pages","Country Delight Admin pages Test Cases","com.new_cms_admin.qa.testcases.CustomerProfilePageTest","com.new_cms_admin.qa.testcases.CustomerProfilePageTest","validateCustomerSearchPage","Verify that customer search page","Test Case Description: to validate customer search page"
"unknown","Fri Apr 02 12:39:49 IST 2021","Fri Apr 02 12:39:49 IST 2021","0","Country Delight Test Automation suite for Admin Pages","Country Delight Admin pages Test Cases","com.new_cms_admin.qa.testcases.CustomerProfilePageTest","com.new_cms_admin.qa.testcases.CustomerProfilePageTest","validateSearchWithInvalidPhoneNumber","Verify that Search with invalid Phone Number(Customer phone number is enter wrong) for customer","Test Case Description: to validate Search with invalid Phone Number(Customer phone number is enter wrong) for customer"
"broken","Fri Apr 02 12:40:09 IST 2021","Fri Apr 02 12:40:39 IST 2021","29619","Country Delight Test Automation suite for Admin Pages","Country Delight Admin pages Test Cases","com.new_cms_admin.qa.testcases.CustomerProfilePageTest","com.new_cms_admin.qa.testcases.CustomerProfilePageTest","validateselectinganyArea","Verify that selecting any route randomly","Test Case Description: to validate selecting any route randomly"
